…
# get a dataframe of information regarding countries, indicators, sources, regions, indicator topics, lending types, income levels,  from the World Bank API 
countries <-  wbstats::wb_cachelist$countries

library(tidyverse)

hiv1<-hiv %>% 
  pivot_longer(cols=2:34,names_to="date",values_to="hiv_rate") %>% 
  print()

## # A tibble: 5,082 x 3
##    country     date  hiv_rate
##    <chr>       <chr>    <dbl>
##  1 Afghanistan 1979        NA
##  2 Afghanistan 1980        NA
##  3 Afghanistan 1981        NA
##  4 Afghanistan 1982        NA
##  5 Afghanistan 1983        NA
##  6 Afghanistan 1984        NA
##  7 Afghanistan 1985        NA
##  8 Afghanistan 1986        NA
##  9 Afghanistan 1987        NA
## 10 Afghanistan 1988        NA
## # … with 5,072 more rows

life_exp<-life_expectancy %>% 
  pivot_longer(cols=2:302,names_to="date",values_to="life_exp") %>% 
  print()

## # A tibble: 56,287 x 3
##    country     date  life_exp
##    <chr>       <chr>    <dbl>
##  1 Afghanistan 1800      28.2
##  2 Afghanistan 1801      28.2
##  3 Afghanistan 1802      28.2
##  4 Afghanistan 1803      28.2
##  5 Afghanistan 1804      28.2
##  6 Afghanistan 1805      28.2
##  7 Afghanistan 1806      28.1
##  8 Afghanistan 1807      28.1
##  9 Afghanistan 1808      28.1
## 10 Afghanistan 1809      28.1
## # … with 56,277 more rows
…
Average_growth<-growth_rate %>% 
  group_by(region,country) %>% 
  summarize(mean=mean(Rate_percent, na.rm = TRUE)) 

## `summarise()` regrouping output by 'region' (override with `.groups` argument)

Average_growth

## # A tibble: 134 x 3
## # Groups:   region [7]
##    region              country       mean
##    <chr>               <chr>        <dbl>
##  1 East Asia & Pacific Australia   -3.51 
##  2 East Asia & Pacific Cambodia    -7.43 
##  3 East Asia & Pacific Fiji        -0.723
##  4 East Asia & Pacific Indonesia   -4.70 
##  5 East Asia & Pacific Malaysia    -3.13 
##  6 East Asia & Pacific Mongolia    -7.46 
##  7 East Asia & Pacific Myanmar     -4.16 
##  8 East Asia & Pacific New Zealand -4.77 
##  9 East Asia & Pacific Philippines -2.60 
## 10 East Asia & Pacific Thailand    -4.92 
## # … with 124 more rows
…
