…
Instagram and Snapchat, by sex

Here we estimate the population proportion of Snapchat or Instagram users in 2016.

# Create a new variable, `snap_insta` that is *Yes* if the respondent reported using any of Snapchat (`snapchat`) or Instagram (`instagrm`), and *No* if not. If the recorded value was NA for both of these questions, we set the value to NA.

gss_snap_insta<-gss %>%
  mutate(snap_insta=case_when(
    snapchat=="Yes"|instagrm=="Yes" ~ "Yes",
    snapchat=="NA"&instagrm=="NA" ~ "NA",
    TRUE ~ "No")
  )
gss_snap_insta

## # A tibble: 2,867 x 8
##    emailmin emailhr snapchat instagrm twitter sex    degree         snap_insta
##    <chr>    <chr>   <chr>    <chr>    <chr>   <chr>  <chr>          <chr>     
##  1 0        12      NA       NA       NA      Male   Bachelor       NA        
##  2 30       0       No       No       No      Male   High school    No        
##  3 NA       NA      No       No       No      Male   Bachelor       No        
##  4 10       0       NA       NA       NA      Female High school    NA        
##  5 NA       NA      Yes      Yes      No      Female Graduate       Yes       
##  6 0        2       No       Yes      No      Female Junior college Yes       
##  7 0        40      NA       NA       NA      Male   High school    NA        
##  8 NA       NA      Yes      Yes      No      Female High school    Yes       
##  9 0        0       NA       NA       NA      Male   High school    NA        
## 10 NA       NA      No       No       No      Male   Junior college No        
## # … with 2,857 more rows
…
