…
# Use `lubridate` to fix dates, as they are given as characters.

# Clean up data just for pollster and results
tidypolls <- approval_polllist %>%
  select(enddate,pollster, approve, disapprove) %>%
  mutate(NAR = approve - disapprove)
tidypolls

## # A tibble: 15,619 x 5
##    enddate   pollster                                 approve disapprove   NAR
##    <chr>     <chr>                                      <dbl>      <dbl> <dbl>
##  1 1/22/2017 Gallup                                      45         45     0  
##  2 1/22/2017 Morning Consult                             46         37     9  
##  3 1/24/2017 Ipsos                                       42.1       45.2  -3.1
##  4 1/23/2017 Gallup                                      45         46    -1  
##  5 1/25/2017 Ipsos                                       42.3       45.8  -3.5
##  6 1/24/2017 Rasmussen Reports/Pulse Opinion Research    57         43    14  
##  7 1/25/2017 Quinnipiac University                       36         44    -8  
##  8 1/24/2017 Gallup                                      46         45     1  
##  9 1/25/2017 Rasmussen Reports/Pulse Opinion Research    59         41    18  
## 10 1/25/2017 Gallup                                      46         45     1  
## # … with 15,609 more rows

# group per date to calculare average Net Approval Rating
tidypolls_summary <- tidypolls %>%na.omit() %>%
  group_by(week_number = week(mdy(enddate)), year=year(mdy(enddate))) %>%
  summarise(count = n(), average_approve = mean(approve), average_disapprove = mean(disapprove), average_NAR = average_approve - average_disapprove, sd_NAR = sd(NAR), se=sd_NAR/sqrt(count),CI_95=average_NAR+1.96*se,CI_5=average_NAR-1.96*se)
tidypolls_summary

## # A tibble: 195 x 10
## # Groups:   week_number [53]
##    week_number  year count average_approve average_disappr… average_NAR sd_NAR
##          <dbl> <dbl> <int>           <dbl>            <dbl>       <dbl>  <dbl>
##  1           1  2018    62            41.3             53.5     -12.2     3.23
##  2           1  2019    74            42.8             53.6     -10.8     4.11
##  3           1  2020    52            42.8             52.2      -9.44    3.75
##  4           2  2018    78            41.1             53.9     -12.8     4.06
##  5           2  2019   101            41.9             54.6     -12.6     3.56
##  6           2  2020    76            42.6             52.6      -9.99    4.17
##  7           3  2018   102            40.2             55.2     -15.0     5.63
##  8           3  2019   105            41.2             55.5     -14.3     3.36
##  9           3  2020    81            43.0             52.6      -9.65    5.31
## 10           4  2017    46            45.5             44.6       0.943   6.96
## # … with 185 more rows, and 3 more variables: se <dbl>, CI_95 <dbl>, CI_5 <dbl>
…
